…
- `simplex_edges`:

  : Edge connections for drawing the simplex boundary

- `vertex_labels`:

  : Labels of the vertices, same as names of the selected item columns

## Examples

``` r
# Load and transform the dataset
prefviz::aecdop25_transformed
#> # A tibble: 976 × 8
#>    DivisionNm CountNumber ElectedParty   ALP   GRN   LNP     Other    IND
#>    <chr>            <dbl> <chr>        <dbl> <dbl> <dbl>     <dbl>  <dbl>
#>  1 Adelaide             0 ALP          0.465 0.190 0.242 0.104     0     
#>  2 Adelaide             1 ALP          0.467 0.194 0.242 0.0968    0     
#>  3 Adelaide             2 ALP          0.476 0.205 0.244 0.0745    0     
#>  4 Adelaide             3 ALP          0.483 0.210 0.249 0.0578    0     
#>  5 Adelaide             4 ALP          0.493 0.222 0.285 0.0001000 0     
#>  6 Adelaide             5 ALP          0.691 0     0.309 0         0     
#>  7 Aston                0 ALP          0.373 0     0.377 0.209     0.0414
#>  8 Aston                1 ALP          0.373 0     0.378 0.206     0.0434
#>  9 Aston                2 ALP          0.376 0     0.380 0.210     0.0338
#> 10 Aston                3 ALP          0.378 0     0.384 0.202     0.0358
#> # ℹ 966 more rows
…
