…
dop_transform(
  data = aecdop_2025,
  key_cols = c(DivisionNm, CountNumber),
  value_col = CalculationValue,
  item_col = Party,
  winner_col = Elected
)
#> # A tibble: 976 × 6
#>    DivisionNm CountNumber   ALP   LNP Other Winner
#>    <chr>            <dbl> <dbl> <dbl> <dbl> <chr> 
#>  1 Adelaide             0 0.465 0.242 0.294 ALP   
#>  2 Adelaide             1 0.467 0.242 0.291 ALP   
#>  3 Adelaide             2 0.476 0.244 0.279 ALP   
#>  4 Adelaide             3 0.483 0.249 0.268 ALP   
#>  5 Adelaide             4 0.493 0.285 0.222 ALP   
#>  6 Adelaide             5 0.691 0.309 0     ALP   
#>  7 Aston                0 0.373 0.377 0.251 ALP   
#>  8 Aston                1 0.373 0.378 0.249 ALP   
#>  9 Aston                2 0.376 0.380 0.244 ALP   
#> 10 Aston                3 0.378 0.384 0.238 ALP   
#> # ℹ 966 more rows
```
