Transforming voting data to ternable-friendly format • prefviz
…
Elected column contains the elected/electoral status of
the party.

We will use the dop_transform() function to transform
the data into a ternable-friendly format.

dop_transform(
  data = aecdop_2025,
  key_cols = c(DivisionNm, CountNumber),
  value_col = CalculationValue,
  item_col = Party,
  winner_col = Elected,
  winner_identifier = "Y"
)
#> # A tibble: 976 × 8
#>    DivisionNm CountNumber   ALP   GRN   LNP  Other    IND Winner
#>    <chr>            <dbl> <dbl> <dbl> <dbl>  <dbl>  <dbl> <chr> 
#>  1 Adelaide             0 0.465 0.190 0.242 0.104  0      ALP   
#>  2 Adelaide             1 0.467 0.194 0.242 0.0967 0      ALP   
#>  3 Adelaide             2 0.476 0.205 0.244 0.0745 0      ALP   
#>  4 Adelaide             3 0.483 0.210 0.249 0.0578 0      ALP   
#>  5 Adelaide             4 0.493 0.222 0.285 0      0      ALP   
#>  6 Adelaide             5 0.691 0     0.309 0      0      ALP   
#>  7 Aston                0 0.373 0     0.377 0.209  0.0414 ALP   
#>  8 Aston                1 0.373 0     0.378 0.206  0.0434 ALP   
#>  9 Aston                2 0.376 0     0.380 0.210  0.0338 ALP   
#> 10 Aston                3 0.378 0     0.384 0.202  0.0358 ALP   
#> # ℹ 966 more rows
…
